^C:\USERS\DAVID\DOCUMENTS\GITHUB\DESARROLLO\PRINCIPIOSDECG\CIRCLE\SRC\APPLICATION.CPP
C:\USERS\DAVID\DOCUMENTS\GITHUB\DESARROLLO\PRINCIPIOSDECG\CIRCLE\X64\DEBUG\VC141.PDB
^C:\USERS\DAVID\DOCUMENTS\GITHUB\DESARROLLO\PRINCIPIOSDECG\CIRCLE\SRC\PIXEL.CPP
C:\USERS\DAVID\DOCUMENTS\GITHUB\DESARROLLO\PRINCIPIOSDECG\CIRCLE\X64\DEBUG\VC141.PDB
^C:\USERS\DAVID\DOCUMENTS\GITHUB\DESARROLLO\PRINCIPIOSDECG\CIRCLE\SRC\PLANE.CPP
C:\USERS\DAVID\DOCUMENTS\GITHUB\DESARROLLO\PRINCIPIOSDECG\CIRCLE\X64\DEBUG\VC141.PDB
^C:\USERS\DAVID\DOCUMENTS\GITHUB\DESARROLLO\PRINCIPIOSDECG\CIRCLE\SRC\SHADERFUNCS.CPP
C:\USERS\DAVID\DOCUMENTS\GITHUB\DESARROLLO\PRINCIPIOSDECG\CIRCLE\X64\DEBUG\VC141.PDB
^C:\USERS\LALO\DESKTOP\DESARROLLO\PRINCIPIOSDECG\CIRCLE\CIRCLE.CPP|C:\USERS\LALO\DESKTOP\DESARROLLO\PRINCIPIOSDECG\CIRCLE\SRC\APPLICATION.CPP|C:\USERS\LALO\DESKTOP\DESARROLLO\PRINCIPIOSDECG\CIRCLE\SRC\PIXEL.CPP|C:\USERS\LALO\DESKTOP\DESARROLLO\PRINCIPIOSDECG\CIRCLE\SRC\PLANE.CPP|C:\USERS\LALO\DESKTOP\DESARROLLO\PRINCIPIOSDECG\CIRCLE\SRC\SHADERFUNCS.CPP
C:\USERS\LALO\DESKTOP\DESARROLLO\PRINCIPIOSDECG\CIRCLE\X64\DEBUG\VC141.PDB
C:\USERS\LALO\DESKTOP\DESARROLLO\PRINCIPIOSDECG\CIRCLE\X64\DEBUG\VC141.IDB
C:\USERS\LALO\DESKTOP\DESARROLLO\PRINCIPIOSDECG\CIRCLE\X64\DEBUG\CIRCLE.OBJ
C:\USERS\LALO\DESKTOP\DESARROLLO\PRINCIPIOSDECG\CIRCLE\X64\DEBUG\APPLICATION.OBJ
C:\USERS\LALO\DESKTOP\DESARROLLO\PRINCIPIOSDECG\CIRCLE\X64\DEBUG\PIXEL.OBJ
C:\USERS\LALO\DESKTOP\DESARROLLO\PRINCIPIOSDECG\CIRCLE\X64\DEBUG\PLANE.OBJ
C:\USERS\LALO\DESKTOP\DESARROLLO\PRINCIPIOSDECG\CIRCLE\X64\DEBUG\SHADERFUNCS.OBJ
^C:\USERS\LALO\DESKTOP\DESARROLLO\PRINCIPIOSDECG\CIRCLE\CIRCLE.CPP
C:\USERS\LALO\DESKTOP\DESARROLLO\PRINCIPIOSDECG\CIRCLE\X64\DEBUG\VC141.PDB
^C:\USERS\LALO\DESKTOP\DESARROLLO\PRINCIPIOSDECG\CIRCLE\SRC\APPLICATION.CPP
C:\USERS\LALO\DESKTOP\DESARROLLO\PRINCIPIOSDECG\CIRCLE\X64\DEBUG\VC141.PDB
^C:\USERS\LALO\DESKTOP\DESARROLLO\PRINCIPIOSDECG\CIRCLE\SRC\PIXEL.CPP
C:\USERS\LALO\DESKTOP\DESARROLLO\PRINCIPIOSDECG\CIRCLE\X64\DEBUG\VC141.PDB
^C:\USERS\LALO\DESKTOP\DESARROLLO\PRINCIPIOSDECG\CIRCLE\SRC\PLANE.CPP
C:\USERS\LALO\DESKTOP\DESARROLLO\PRINCIPIOSDECG\CIRCLE\X64\DEBUG\VC141.PDB
^C:\USERS\LALO\DESKTOP\DESARROLLO\PRINCIPIOSDECG\CIRCLE\SRC\SHADERFUNCS.CPP
C:\USERS\LALO\DESKTOP\DESARROLLO\PRINCIPIOSDECG\CIRCLE\X64\DEBUG\VC141.PDB
